{
  "_links": {
    "first_page": {
      "href": "https://an.example.link/from/payment/platform",
      "method": "GET"
    },
    "last_page": {
      "href": "https://an.example.link/from/payment/platform",
      "method": "GET"
    },
    "next_page": {
      "href": "https://an.example.link/from/payment/platform",
      "method": "GET"
    },
    "prev_page": {
      "href": "https://an.example.link/from/payment/platform",
      "method": "GET"
    },
    "self": {
      "href": "https://an.example.link/from/payment/platform",
      "method": "GET"
    }
  },
  "count": 20,
  "page": 1,
  "results": [
    {
      "_links": {
        "cancel": {
          "href": "https://an.example.link/from/payment/platform",
          "method": "POST",
          "params": {
            "description": "This is a value for a parameter called description"
          },
          "type": "application/x-www-form-urlencoded"
        },
        "capture": {
          "href": "https://an.example.link/from/payment/platform",
          "method": "POST",
          "params": {
            "description": "This is a value for a parameter called description"
          },
          "type": "application/x-www-form-urlencoded"
        },
        "events": {
          "href": "https://an.example.link/from/payment/platform",
          "method": "GET"
        },
        "refunds": {
          "href": "https://an.example.link/from/payment/platform",
          "method": "GET"
        },
        "self": {
          "href": "https://an.example.link/from/payment/platform",
          "method": "GET"
        }
      },
      "amount": 1200,
      "authorisation_mode": "web",
      "authorisation_summary": {
        "three_d_secure": {
          "required": true
        }
      },
      "card_details": {
        "billing_address": {
          "city": "address city",
          "country": "GB",
          "line1": "address line 1",
          "line2": "address line 2",
          "postcode": "AB1 2CD"
        },
        "card_brand": "Visa",
        "card_type": "debit",
        "cardholder_name": "Mr. Card holder",
        "expiry_date": "04/24",
        "first_digits_card_number": "123456",
        "last_digits_card_number": "1234"
      },
      "corporate_card_surcharge": 250,
      "created_date": "2016-01-21T17:15:00.000Z",
      "delayed_capture": false,
      "description": "Your Service Description",
      "email": "The paying user’s email address.",
      "fee": 5,
      "language": "en",
      "metadata": "{\"property1\": \"value1\", \"property2\": \"value2\"}\"",
      "moto": false,
      "net_amount": 1195,
      "payment_id": "hu20sqlact5260q2nanm0q8u93",
      "payment_provider": "worldpay",
      "provider_id": "reference-from-payment-gateway",
      "reference": "your-reference",
      "refund_summary": {
        "amount_available": 100,
        "amount_submitted": 0,
        "status": "available"
      },
      "return_url": "http://your.service.domain/your-reference",
      "settlement_summary": {
        "capture_submit_time": "2016-01-21T17:15:00.000Z",
        "captured_date": "2016-01-21",
        "settled_date": "2016-01-21"
      },
      "state": {
        "can_retry": true,
        "code": "P010",
        "finished": true,
        "message": "User cancelled the payment",
        "status": "created"
      },
      "total_amount": 1450
    }
  ],
  "total": 100
}
